…
``` r
met_lz = lazy_dt(dat, immutable = FALSE)
```

``` r
met_lz
```

    ## Source: local data table [2,377,343 x 32]
    ## Call:   `_DT1`
    ## 
    ##   USAFID  WBAN  year month   day  hour   min   lat   lon  elev wind.dir wind.d…¹
    ##    <int> <int> <int> <int> <int> <int> <int> <dbl> <dbl> <int>    <int> <chr>   
    ## 1 690150 93121  2019     8     1     0    56  34.3 -116.   696      220 5       
    ## 2 690150 93121  2019     8     1     1    56  34.3 -116.   696      230 5       
    ## 3 690150 93121  2019     8     1     2    56  34.3 -116.   696      230 5       
    ## 4 690150 93121  2019     8     1     3    56  34.3 -116.   696      210 5       
    ## 5 690150 93121  2019     8     1     4    56  34.3 -116.   696      120 5       
    ## 6 690150 93121  2019     8     1     5    56  34.3 -116.   696       NA 9       
    ## # … with 2,377,337 more rows, 20 more variables: wind.type.code <chr>,
    ## #   wind.sp <dbl>, wind.sp.qc <chr>, ceiling.ht <int>, ceiling.ht.qc <int>,
    ## #   ceiling.ht.method <chr>, sky.cond <chr>, vis.dist <int>, vis.dist.qc <chr>,
    ## #   vis.var <chr>, vis.var.qc <chr>, temp <dbl>, temp.qc <chr>,
    ## #   dew.point <dbl>, dew.point.qc <chr>, atm.press <dbl>, atm.press.qc <int>,
    ## #   rh <dbl>, CTRY <chr>, STATE <chr>, and abbreviated variable name
    ## #   ¹​wind.dir.qc
    ## 
    ## # Use as.data.table()/as.data.frame()/as_tibble() to access results
…
    ## Warning in min(ecl_diff, na.rm = TRUE): no non-missing arguments to min;
    ## returning Inf

    ## Warning in min(ecl_diff, na.rm = TRUE): no non-missing arguments to min;
    ## returning Inf

``` r
state_med_final
```

    ## # A tibble: 48 × 2
    ##    STATE ecl_diff
    ##    <chr>    <dbl>
    ##  1 AL       0.192
    ##  2 AR       0.402
    ##  3 AZ       1.72 
    ##  4 CA       0.174
    ##  5 CO       0.966
    ##  6 CT       0.309
    ##  7 DE       0    
    ##  8 FL       0.162
    ##  9 GA       0.388
    ## 10 IA       0.208
    ## # … with 38 more rows
…
